{
    "faglass": {
        "codeValue":"#xf000"
    },
"famusic":{"codeValue":"#xf001"},
"fasearch":{"codeValue":"#xf002"},
"faenvelopeo":{"codeValue":"#xf003"},
"faheart":{"codeValue":"#xf004"},
"fastar":{"codeValue":"#xf005"},
"fastaro":{"codeValue":"#xf006"},
"fauser":{"codeValue":"#xf007"},
"fafilm":{"codeValue":"#xf008"},
"fathlarge":{"codeValue":"#xf009"},
"fath":{"codeValue":"#xf00a"},
"fathlist":{"codeValue":"#xf00b"},
"facheck":{"codeValue":"#xf00c"},
"fatimes":{"codeValue":"#xf00d"},
"fasearchplus":{"codeValue":"#xf00e"},
"fasearchminus":{"codeValue":"#xf010"},
"fapoweroff":{"codeValue":"#xf011"},
"fasignal":{"codeValue":"#xf012"},
"facog":{"codeValue":"#xf013"},
"fatrasho":{"codeValue":"#xf014"},
"fahome":{"codeValue":"#xf015"},
"fafileo":{"codeValue":"#xf016"},
"faclocko":{"codeValue":"#xf017"},
"faroad":{"codeValue":"#xf018"},
"fadownload":{"codeValue":"#xf019"},
"faarrowcircleodown":{"codeValue":"#xf01a"},
"faarrowcircleoup":{"codeValue":"#xf01b"},
"fainbox":{"codeValue":"#xf01c"},
"faplaycircleo":{"codeValue":"#xf01d"},
"farepeat":{"codeValue":"#xf01e"},
"farefresh":{"codeValue":"#xf021"},
"falistalt":{"codeValue":"#xf022"},
"falock":{"codeValue":"#xf023"},
"faflag":{"codeValue":"#xf024"},
"faheadphones":{"codeValue":"#xf025"},
"favolumeoff":{"codeValue":"#xf026"},
"favolumedown":{"codeValue":"#xf027"},
"favolumeup":{"codeValue":"#xf028"},
"faqrcode":{"codeValue":"#xf029"},
"fabarcode":{"codeValue":"#xf02a"},
"fatag":{"codeValue":"#xf02b"},
"fatags":{"codeValue":"#xf02c"},
"fabook":{"codeValue":"#xf02d"},
"fabookmark":{"codeValue":"#xf02e"},
"faprint":{"codeValue":"#xf02f"},
"facamera":{"codeValue":"#xf030"},
"fafont":{"codeValue":"#xf031"},
"fabold":{"codeValue":"#xf032"},
"faitalic":{"codeValue":"#xf033"},
"fatextheight":{"codeValue":"#xf034"},
"fatextwidth":{"codeValue":"#xf035"},
"faalignleft":{"codeValue":"#xf036"},
"faaligncenter":{"codeValue":"#xf037"},
"faalignright":{"codeValue":"#xf038"},
"faalignjustify":{"codeValue":"#xf039"},
"falist":{"codeValue":"#xf03a"},
"faoutdent":{"codeValue":"#xf03b"},
"faindent":{"codeValue":"#xf03c"},
"favideocamera":{"codeValue":"#xf03d"},
"fapictureo":{"codeValue":"#xf03e"},
"fapencil":{"codeValue":"#xf040"},
"famapmarker":{"codeValue":"#xf041"},
"faadjust":{"codeValue":"#xf042"},
"fatint":{"codeValue":"#xf043"},
"fapencilsquareo":{"codeValue":"#xf044"},
"fasharesquareo":{"codeValue":"#xf045"},
"fachecksquareo":{"codeValue":"#xf046"},
"faarrows":{"codeValue":"#xf047"},
"fastepbackward":{"codeValue":"#xf048"},
"fafastbackward":{"codeValue":"#xf049"},
"fabackward":{"codeValue":"#xf04a"},
"faplay":{"codeValue":"#xf04b"},
"fapause":{"codeValue":"#xf04c"},
"fastop":{"codeValue":"#xf04d"},
"faforward":{"codeValue":"#xf04e"},
"fafastforward":{"codeValue":"#xf050"},
"fastepforward":{"codeValue":"#xf051"},
"faeject":{"codeValue":"#xf052"},
"fachevronleft":{"codeValue":"#xf053"},
"fachevronright":{"codeValue":"#xf054"},
"fapluscircle":{"codeValue":"#xf055"},
"faminuscircle":{"codeValue":"#xf056"},
"fatimescircle":{"codeValue":"#xf057"},
"facheckcircle":{"codeValue":"#xf058"},
"faquestioncircle":{"codeValue":"#xf059"},
"fainfocircle":{"codeValue":"#xf05a"},
"facrosshairs":{"codeValue":"#xf05b"},
"fatimescircleo":{"codeValue":"#xf05c"},
"facheckcircleo":{"codeValue":"#xf05d"},
"faban":{"codeValue":"#xf05e"},
"faarrowleft":{"codeValue":"#xf060"},
"faarrowright":{"codeValue":"#xf061"},
"faarrowup":{"codeValue":"#xf062"},
"faarrowdown":{"codeValue":"#xf063"},
"fashare":{"codeValue":"#xf064"},
"faexpand":{"codeValue":"#xf065"},
"facompress":{"codeValue":"#xf066"},
"faplus":{"codeValue":"#xf067"},
"faminus":{"codeValue":"#xf068"},
"faasterisk":{"codeValue":"#xf069"},
"faexclamationcircle":{"codeValue":"#xf06a"},
"fagift":{"codeValue":"#xf06b"},
"faleaf":{"codeValue":"#xf06c"},
"fafire":{"codeValue":"#xf06d"},
"faeye":{"codeValue":"#xf06e"},
"faeyeslash":{"codeValue":"#xf070"},
"faexclamationtriangle":{"codeValue":"#xf071"},
"faplane":{"codeValue":"#xf072"},
"facalendar":{"codeValue":"#xf073"},
"farandom":{"codeValue":"#xf074"},
"facomment":{"codeValue":"#xf075"},
"famagnet":{"codeValue":"#xf076"},
"fachevronup":{"codeValue":"#xf077"},
"fachevrondown":{"codeValue":"#xf078"},
"faretweet":{"codeValue":"#xf079"},
"fashoppingcart":{"codeValue":"#xf07a"},
"fafolder":{"codeValue":"#xf07b"},
"fafolderopen":{"codeValue":"#xf07c"},
"faarrowsv":{"codeValue":"#xf07d"},
"faarrowsh":{"codeValue":"#xf07e"},
"fabarchart":{"codeValue":"#xf080"},
"fatwittersquare":{"codeValue":"#xf081"},
"fafacebooksquare":{"codeValue":"#xf082"},
"facameraretro":{"codeValue":"#xf083"},
"fakey":{"codeValue":"#xf084"},
"facogs":{"codeValue":"#xf085"},
"facomments":{"codeValue":"#xf086"},
"fathumbsoup":{"codeValue":"#xf087"},
"fathumbsodown":{"codeValue":"#xf088"},
"fastarhalf":{"codeValue":"#xf089"},
"fahearto":{"codeValue":"#xf08a"},
"fasignout":{"codeValue":"#xf08b"},
"falinkedinsquare":{"codeValue":"#xf08c"},
"fathumbtack":{"codeValue":"#xf08d"},
"faexternallink":{"codeValue":"#xf08e"},
"fasignin":{"codeValue":"#xf090"},
"fatrophy":{"codeValue":"#xf091"},
"fagithubsquare":{"codeValue":"#xf092"},
"faupload":{"codeValue":"#xf093"},
"falemono":{"codeValue":"#xf094"},
"faphone":{"codeValue":"#xf095"},
"fasquareo":{"codeValue":"#xf096"},
"fabookmarko":{"codeValue":"#xf097"},
"faphonesquare":{"codeValue":"#xf098"},
"fatwitter":{"codeValue":"#xf099"},
"fafacebook":{"codeValue":"#xf09a"},
"fagithub":{"codeValue":"#xf09b"},
"faunlock":{"codeValue":"#xf09c"},
"facreditcard":{"codeValue":"#xf09d"},
"farss":{"codeValue":"#xf09e"},
"fahddo":{"codeValue":"#xf0a0"},
"fabullhorn":{"codeValue":"#xf0a1"},
"fabell":{"codeValue":"#xf0f3"},
"facertificate":{"codeValue":"#xf0a3"},
"fahandoright":{"codeValue":"#xf0a4"},
"fahandoleft":{"codeValue":"#xf0a5"},
"fahandoup":{"codeValue":"#xf0a6"},
"fahandodown":{"codeValue":"#xf0a7"},
"faarrowcircleleft":{"codeValue":"#xf0a8"},
"faarrowcircleright":{"codeValue":"#xf0a9"},
"faarrowcircleup":{"codeValue":"#xf0aa"},
"faarrowcircledown":{"codeValue":"#xf0ab"},
"faglobe":{"codeValue":"#xf0ac"},
"fawrench":{"codeValue":"#xf0ad"},
"fatasks":{"codeValue":"#xf0ae"},
"fafilter":{"codeValue":"#xf0b0"},
"fabriefcase":{"codeValue":"#xf0b1"},
"faarrowsalt":{"codeValue":"#xf0b2"},
"fausers":{"codeValue":"#xf0c0"},
"falink":{"codeValue":"#xf0c1"},
"facloud":{"codeValue":"#xf0c2"},
"faflask":{"codeValue":"#xf0c3"},
"fascissors":{"codeValue":"#xf0c4"},
"fafileso":{"codeValue":"#xf0c5"},
"fapaperclip":{"codeValue":"#xf0c6"},
"fafloppyo":{"codeValue":"#xf0c7"},
"fasquare":{"codeValue":"#xf0c8"},
"fabars":{"codeValue":"#xf0c9"},
"falistul":{"codeValue":"#xf0ca"},
"falistol":{"codeValue":"#xf0cb"},
"fastrikethrough":{"codeValue":"#xf0cc"},
"faunderline":{"codeValue":"#xf0cd"},
"fatable":{"codeValue":"#xf0ce"},
"famagic":{"codeValue":"#xf0d0"},
"fatruck":{"codeValue":"#xf0d1"},
"fapinterest":{"codeValue":"#xf0d2"},
"fapinterestsquare":{"codeValue":"#xf0d3"},
"fagoogleplussquare":{"codeValue":"#xf0d4"},
"fagoogleplus":{"codeValue":"#xf0d5"},
"famoney":{"codeValue":"#xf0d6"},
"facaretdown":{"codeValue":"#xf0d7"},
"facaretup":{"codeValue":"#xf0d8"},
"facaretleft":{"codeValue":"#xf0d9"},
"facaretright":{"codeValue":"#xf0da"},
"facolumns":{"codeValue":"#xf0db"},
"fasort":{"codeValue":"#xf0dc"},
"fasortdesc":{"codeValue":"#xf0dd"},
"fasortasc":{"codeValue":"#xf0de"},
"faenvelope":{"codeValue":"#xf0e0"},
"falinkedin":{"codeValue":"#xf0e1"},
"faundo":{"codeValue":"#xf0e2"},
"fagavel":{"codeValue":"#xf0e3"},
"fatachometer":{"codeValue":"#xf0e4"},
"facommento":{"codeValue":"#xf0e5"},
"facommentso":{"codeValue":"#xf0e6"},
"fabolt":{"codeValue":"#xf0e7"},
"fasitemap":{"codeValue":"#xf0e8"},
"faumbrella":{"codeValue":"#xf0e9"},
"faclipboard":{"codeValue":"#xf0ea"},
"falightbulbo":{"codeValue":"#xf0eb"},
"faexchange":{"codeValue":"#xf0ec"},
"faclouddownload":{"codeValue":"#xf0ed"},
"facloudupload":{"codeValue":"#xf0ee"},
"fausermd":{"codeValue":"#xf0f0"},
"fastethoscope":{"codeValue":"#xf0f1"},
"fasuitcase":{"codeValue":"#xf0f2"},
"fabello":{"codeValue":"#xf0a2"},
"facoffee":{"codeValue":"#xf0f4"},
"facutlery":{"codeValue":"#xf0f5"},
"fafiletexto":{"codeValue":"#xf0f6"},
"fabuildingo":{"codeValue":"#xf0f7"},
"fahospitalo":{"codeValue":"#xf0f8"},
"faambulance":{"codeValue":"#xf0f9"},
"famedkit":{"codeValue":"#xf0fa"},
"fafighterjet":{"codeValue":"#xf0fb"},
"fabeer":{"codeValue":"#xf0fc"},
"fahsquare":{"codeValue":"#xf0fd"},
"faplussquare":{"codeValue":"#xf0fe"},
"faangledoubleleft":{"codeValue":"#xf100"},
"faangledoubleright":{"codeValue":"#xf101"},
"faangledoubleup":{"codeValue":"#xf102"},
"faangledoubledown":{"codeValue":"#xf103"},
"faangleleft":{"codeValue":"#xf104"},
"faangleright":{"codeValue":"#xf105"},
"faangleup":{"codeValue":"#xf106"},
"faangledown":{"codeValue":"#xf107"},
"fadesktop":{"codeValue":"#xf108"},
"falaptop":{"codeValue":"#xf109"},
"fatablet":{"codeValue":"#xf10a"},
"famobile":{"codeValue":"#xf10b"},
"facircleo":{"codeValue":"#xf10c"},
"faquoteleft":{"codeValue":"#xf10d"},
"faquoteright":{"codeValue":"#xf10e"},
"faspinner":{"codeValue":"#xf110"},
"facircle":{"codeValue":"#xf111"},
"fareply":{"codeValue":"#xf112"},
"fagithubalt":{"codeValue":"#xf113"},
"fafoldero":{"codeValue":"#xf114"},
"fafolderopeno":{"codeValue":"#xf115"},
"fasmileo":{"codeValue":"#xf118"},
"fafrowno":{"codeValue":"#xf119"},
"fameho":{"codeValue":"#xf11a"},
"fagamepad":{"codeValue":"#xf11b"},
"fakeyboardo":{"codeValue":"#xf11c"},
"faflago":{"codeValue":"#xf11d"},
"faflagcheckered":{"codeValue":"#xf11e"},
"faterminal":{"codeValue":"#xf120"},
"facode":{"codeValue":"#xf121"},
"fareplyall":{"codeValue":"#xf122"},
"fastarhalfo":{"codeValue":"#xf123"},
"falocationarrow":{"codeValue":"#xf124"},
"facrop":{"codeValue":"#xf125"},
"facodefork":{"codeValue":"#xf126"},
"fachainbroken":{"codeValue":"#xf127"},
"faquestion":{"codeValue":"#xf128"},
"fainfo":{"codeValue":"#xf129"},
"faexclamation":{"codeValue":"#xf12a"},
"fasuperscript":{"codeValue":"#xf12b"},
"fasubscript":{"codeValue":"#xf12c"},
"faeraser":{"codeValue":"#xf12d"},
"fapuzzlepiece":{"codeValue":"#xf12e"},
"famicrophone":{"codeValue":"#xf130"},
"famicrophoneslash":{"codeValue":"#xf131"},
"fashield":{"codeValue":"#xf132"},
"facalendaro":{"codeValue":"#xf133"},
"fafireextinguisher":{"codeValue":"#xf134"},
"farocket":{"codeValue":"#xf135"},
"famaxcdn":{"codeValue":"#xf136"},
"fachevroncircleleft":{"codeValue":"#xf137"},
"fachevroncircleright":{"codeValue":"#xf138"},
"fachevroncircleup":{"codeValue":"#xf139"},
"fachevroncircledown":{"codeValue":"#xf13a"},
"fahtml5":{"codeValue":"#xf13b"},
"facss3":{"codeValue":"#xf13c"},
"faanchor":{"codeValue":"#xf13d"},
"faunlockalt":{"codeValue":"#xf13e"},
"fabullseye":{"codeValue":"#xf140"},
"faellipsish":{"codeValue":"#xf141"},
"faellipsisv":{"codeValue":"#xf142"},
"farsssquare":{"codeValue":"#xf143"},
"faplaycircle":{"codeValue":"#xf144"},
"faticket":{"codeValue":"#xf145"},
"faminussquare":{"codeValue":"#xf146"},
"faminussquareo":{"codeValue":"#xf147"},
"falevelup":{"codeValue":"#xf148"},
"faleveldown":{"codeValue":"#xf149"},
"fachecksquare":{"codeValue":"#xf14a"},
"fapencilsquare":{"codeValue":"#xf14b"},
"faexternallinksquare":{"codeValue":"#xf14c"},
"fasharesquare":{"codeValue":"#xf14d"},
"facompass":{"codeValue":"#xf14e"},
"facaretsquareodown":{"codeValue":"#xf150"},
"facaretsquareoup":{"codeValue":"#xf151"},
"facaretsquareoright":{"codeValue":"#xf152"},
"faeur":{"codeValue":"#xf153"},
"fagbp":{"codeValue":"#xf154"},
"fausd":{"codeValue":"#xf155"},
"fainr":{"codeValue":"#xf156"},
"fajpy":{"codeValue":"#xf157"},
"farub":{"codeValue":"#xf158"},
"fakrw":{"codeValue":"#xf159"},
"fabtc":{"codeValue":"#xf15a"},
"fafile":{"codeValue":"#xf15b"},
"fafiletext":{"codeValue":"#xf15c"},
"fasortalphaasc":{"codeValue":"#xf15d"},
"fasortalphadesc":{"codeValue":"#xf15e"},
"fasortamountasc":{"codeValue":"#xf160"},
"fasortamountdesc":{"codeValue":"#xf161"},
"fasortnumericasc":{"codeValue":"#xf162"},
"fasortnumericdesc":{"codeValue":"#xf163"},
"fathumbsup":{"codeValue":"#xf164"},
"fathumbsdown":{"codeValue":"#xf165"},
"fayoutubesquare":{"codeValue":"#xf166"},
"fayoutube":{"codeValue":"#xf167"},
"faxing":{"codeValue":"#xf168"},
"faxingsquare":{"codeValue":"#xf169"},
"fayoutubeplay":{"codeValue":"#xf16a"},
"fadropbox":{"codeValue":"#xf16b"},
"fastackoverflow":{"codeValue":"#xf16c"},
"fainstagram":{"codeValue":"#xf16d"},
"faflickr":{"codeValue":"#xf16e"},
"faadn":{"codeValue":"#xf170"},
"fabitbucket":{"codeValue":"#xf171"},
"fabitbucketsquare":{"codeValue":"#xf172"},
"fatumblr":{"codeValue":"#xf173"},
"fatumblrsquare":{"codeValue":"#xf174"},
"falongarrowdown":{"codeValue":"#xf175"},
"falongarrowup":{"codeValue":"#xf176"},
"falongarrowleft":{"codeValue":"#xf177"},
"falongarrowright":{"codeValue":"#xf178"},
"faapple":{"codeValue":"#xf179"},
"fawindows":{"codeValue":"#xf17a"},
"faandroid":{"codeValue":"#xf17b"},
"falinux":{"codeValue":"#xf17c"},
"fadribbble":{"codeValue":"#xf17d"},
"faskype":{"codeValue":"#xf17e"},
"fafoursquare":{"codeValue":"#xf180"},
"fatrello":{"codeValue":"#xf181"},
"fafemale":{"codeValue":"#xf182"},
"famale":{"codeValue":"#xf183"},
"fagittip":{"codeValue":"#xf184"},
"fasuno":{"codeValue":"#xf185"},
"famoono":{"codeValue":"#xf186"},
"faarchive":{"codeValue":"#xf187"},
"fabug":{"codeValue":"#xf188"},
"favk":{"codeValue":"#xf189"},
"faweibo":{"codeValue":"#xf18a"},
"farenren":{"codeValue":"#xf18b"},
"fapagelines":{"codeValue":"#xf18c"},
"fastackexchange":{"codeValue":"#xf18d"},
"faarrowcircleoright":{"codeValue":"#xf18e"},
"faarrowcircleoleft":{"codeValue":"#xf190"},
"facaretsquareoleft":{"codeValue":"#xf191"},
"fadotcircleo":{"codeValue":"#xf192"},
"fawheelchair":{"codeValue":"#xf193"},
"favimeosquare":{"codeValue":"#xf194"},
"fatry":{"codeValue":"#xf195"},
"faplussquareo":{"codeValue":"#xf196"},
"faspaceshuttle":{"codeValue":"#xf197"},
"faslack":{"codeValue":"#xf198"},
"faenvelopesquare":{"codeValue":"#xf199"},
"fawordpress":{"codeValue":"#xf19a"},
"fauniversity":{"codeValue":"#xf19c"},
"fagraduationcap":{"codeValue":"#xf19d"},
"fayahoo":{"codeValue":"#xf19e"},
"fagoogle":{"codeValue":"#xf1a0"},
"fareddit":{"codeValue":"#xf1a1"},
"faredditsquare":{"codeValue":"#xf1a2"},
"fastumbleuponcircle":{"codeValue":"#xf1a3"},
"fastumbleupon":{"codeValue":"#xf1a4"},
"fadelicious":{"codeValue":"#xf1a5"},
"fadigg":{"codeValue":"#xf1a6"},
"fapiedpiper":{"codeValue":"#xf1a7"},
"fapiedpiperalt":{"codeValue":"#xf1a8"},
"fadrupal":{"codeValue":"#xf1a9"},
"fajoomla":{"codeValue":"#xf1aa"},
"falanguage":{"codeValue":"#xf1ab"},
"fafax":{"codeValue":"#xf1ac"},
"fabuilding":{"codeValue":"#xf1ad"},
"fachild":{"codeValue":"#xf1ae"},
"fapaw":{"codeValue":"#xf1b0"},
"faspoon":{"codeValue":"#xf1b1"},
"facube":{"codeValue":"#xf1b2"},
"facubes":{"codeValue":"#xf1b3"},
"fabehance":{"codeValue":"#xf1b4"},
"fabehancesquare":{"codeValue":"#xf1b5"},
"fasteam":{"codeValue":"#xf1b6"},
"fasteamsquare":{"codeValue":"#xf1b7"},
"farecycle":{"codeValue":"#xf1b8"},
"facar":{"codeValue":"#xf1b9"},
"fataxi":{"codeValue":"#xf1ba"},
"fatree":{"codeValue":"#xf1bb"},
"faspotify":{"codeValue":"#xf1bc"},
"fadeviantart":{"codeValue":"#xf1bd"},
"fasoundcloud":{"codeValue":"#xf1be"},
"fadatabase":{"codeValue":"#xf1c0"},
"fafilepdfo":{"codeValue":"#xf1c1"},
"fafilewordo":{"codeValue":"#xf1c2"},
"fafileexcelo":{"codeValue":"#xf1c3"},
"fafilepowerpointo":{"codeValue":"#xf1c4"},
"fafileimageo":{"codeValue":"#xf1c5"},
"fafilearchiveo":{"codeValue":"#xf1c6"},
"fafileaudioo":{"codeValue":"#xf1c7"},
"fafilevideoo":{"codeValue":"#xf1c8"},
"fafilecodeo":{"codeValue":"#xf1c9"},
"favine":{"codeValue":"#xf1ca"},
"facodepen":{"codeValue":"#xf1cb"},
"fajsfiddle":{"codeValue":"#xf1cc"},
"falifering":{"codeValue":"#xf1cd"},
"facircleonotch":{"codeValue":"#xf1ce"},
"farebel":{"codeValue":"#xf1d0"},
"faempire":{"codeValue":"#xf1d1"},
"fagitsquare":{"codeValue":"#xf1d2"},
"fagit":{"codeValue":"#xf1d3"},
"fahackernews":{"codeValue":"#xf1d4"},
"fatencentweibo":{"codeValue":"#xf1d5"},
"faqq":{"codeValue":"#xf1d6"},
"faweixin":{"codeValue":"#xf1d7"},
"fapaperplane":{"codeValue":"#xf1d8"},
"fapaperplaneo":{"codeValue":"#xf1d9"},
"fahistory":{"codeValue":"#xf1da"},
"facirclethin":{"codeValue":"#xf1db"},
"faheader":{"codeValue":"#xf1dc"},
"faparagraph":{"codeValue":"#xf1dd"},
"fasliders":{"codeValue":"#xf1de"},
"fasharealt":{"codeValue":"#xf1e0"},
"fasharealtsquare":{"codeValue":"#xf1e1"},
"fabomb":{"codeValue":"#xf1e2"},
"fafutbolo":{"codeValue":"#xf1e3"},
"fatty":{"codeValue":"#xf1e4"},
"fabinoculars":{"codeValue":"#xf1e5"},
"faplug":{"codeValue":"#xf1e6"},
"faslideshare":{"codeValue":"#xf1e7"},
"fatwitch":{"codeValue":"#xf1e8"},
"fayelp":{"codeValue":"#xf1e9"},
"fanewspapero":{"codeValue":"#xf1ea"},
"fawifi":{"codeValue":"#xf1eb"},
"facalculator":{"codeValue":"#xf1ec"},
"fapaypal":{"codeValue":"#xf1ed"},
"fagooglewallet":{"codeValue":"#xf1ee"},
"faccvisa":{"codeValue":"#xf1f0"},
"faccmastercard":{"codeValue":"#xf1f1"},
"faccdiscover":{"codeValue":"#xf1f2"},
"faccamex":{"codeValue":"#xf1f3"},
"faccpaypal":{"codeValue":"#xf1f4"},
"faccstripe":{"codeValue":"#xf1f5"},
"fabellslash":{"codeValue":"#xf1f6"},
"fabellslasho":{"codeValue":"#xf1f7"},
"fatrash":{"codeValue":"#xf1f8"},
"facopyright":{"codeValue":"#xf1f9"},
"faat":{"codeValue":"#xf1fa"},
"faeyedropper":{"codeValue":"#xf1fb"},
"fapaintbrush":{"codeValue":"#xf1fc"},
"fabirthdaycake":{"codeValue":"#xf1fd"},
"faareachart":{"codeValue":"#xf1fe"},
"fapiechart":{"codeValue":"#xf200"},
"falinechart":{"codeValue":"#xf201"},
"falastfm":{"codeValue":"#xf202"},
"falastfmsquare":{"codeValue":"#xf203"},
"fatoggleoff":{"codeValue":"#xf204"},
"fatoggleon":{"codeValue":"#xf205"},
"fabicycle":{"codeValue":"#xf206"},
"fabus":{"codeValue":"#xf207"},
"faioxhost":{"codeValue":"#xf208"},
"faangellist":{"codeValue":"#xf209"},
"facc":{"codeValue":"#xf20a"},
"fails":{"codeValue":"#xf20b"},
"fameanpath":{"codeValue":"#xf20c"},
"fatelevision":{"codeValue":"#xf26c"},
"fatv":{"codeValue":"#xf26c"}

}


